<?xml version="1.0" encoding="utf-8"?>
<!-- Generator: Adobe Illustrator 19.2.1, SVG Export Plug-In . SVG Version: 6.00 Build 0)  -->
<svg version="1.1" id="Isolation_Mode" xmlns="http://www.w3.org/2000/svg" xmlns:xlink="http://www.w3.org/1999/xlink" x="0px"
	 y="0px" width="11.2px" height="24px" viewBox="0 0 11.2 24" style="enable-background:new 0 0 11.2 24;" xml:space="preserve">
<style type="text/css">
	.st0{fill:#69C589;}
</style>
<g>
	<path id="XMLID_19_" class="st0" d="M7.4,7.2V5.3c0-0.9,0.6-1.2,1.1-1.2c0.4,0,2.7,0,2.7,0V0L7.4,0C3.3,0,2.4,3.1,2.4,5v2.2H0v2.9
		V12h2.4c0,5.4,0,12,0,12h4.8c0,0,0-6.6,0-12h3.6l0.2-1.9l0.3-2.9H7.4z"/>
</g>
</svg>
