<?xml version="1.0" encoding="utf-8"?>
<!-- Generator: Adobe Illustrator 19.2.1, SVG Export Plug-In . SVG Version: 6.00 Build 0)  -->
<svg version="1.1" id="Layer_1" xmlns="http://www.w3.org/2000/svg" xmlns:xlink="http://www.w3.org/1999/xlink" x="0px" y="0px"
	 width="114.6px" height="102px" viewBox="0 0 114.6 102" style="enable-background:new 0 0 114.6 102;" xml:space="preserve">
<style type="text/css">
	.st0{opacity:0.5;fill:#69C589;}
</style>
<path class="st0" d="M108,88.2c20.5-25-11.9-54.1-29.8-71.6C60.1-0.7,33.9-10,11.1,16.8c-22.8,26.8-5.9,52.6,10.1,65.7
	C37.2,95.4,85.3,115.9,108,88.2z"/>
</svg>
